INDEX VERSION 1.130+D:\Bitbucketdemo\.metadata\.plugins\org.eclipse.jdt.core
3966524131.index
2611143984.index
3823437678.index
4055732440.index
1608784072.index
4101211808.index
2748733375.index
354847155.index
1069399176.index
1642650959.index
1162361327.index
3457153831.index
160891925.index
2056462534.index
2147801284.index
2051884769.index
3125725795.index
867062048.index
2118402417.index
1594905321.index
3335751325.index
368682434.index
3893554766.index
1857371720.index
3191116054.index
3074380979.index
281435312.index
844050162.index
2156275233.index
142444270.index
2494401593.index
4167802264.index
1312951780.index
537226344.index
865741978.index
3988866523.index
